1 195
2 230
3 270
4 300
5 340
6 150
7 185
8 225
9 255
10 295
11 100
12 140
13 180
14 210
15 250
16 100
17 140
18 180
19 210
20 250
21 150
22 185
23 225
24 255
25 295
26 195
27 230
28 270
29 300
30 340